[
 {
  "rating":"mHD",
  "name":"B\u1ea3o V\u1ec7 C\u00f4ng L\u00fd ",
  "title":"Jai Ho ",
  "poster":"https://lh4.googleusercontent.com/-KuZ_a8ep0ok/Uzvvlx0tTpI/AAAAAAAAAKo/guEcDR63uyk/avatar2014-04-02%25252011%25253A08%25253A06.032584.jpg",
  "score":6.6,
  "showtimes":"100 Ph\u00fat",
  "id":65
 },
 {
  "rating":"mHD",
  "name":"B\u1ed1 \u0111\u1eddi",
  "title":"Bad Asses",
  "poster":"https://lh5.googleusercontent.com/-hpvl68ZN_Nc/Uzr9E3CLffI/AAAAAAAAAKY/lSHRHown47Y/avatar2014-04-01%25252017%25253A53%25253A22.438100.jpg",
  "score":0.0,
  "showtimes":"90 ph\u00fat",
  "id":64
 },
 {
  "rating":"mHD",
  "name":"D\u00f2ng M\u00e1u V\u1eabn Ch\u1ea3y",
  "title":"Blood Ties 2014 ",
  "poster":"https://lh3.googleusercontent.com/-4-9oO86y9m4/Uzr8dczzUiI/AAAAAAAAAKQ/Q2_5MIiFkBk/avatar2014-04-01%25252017%25253A50%25253A44.205981.jpg",
  "score":0.0,
  "showtimes":"120 Ph\u00fat",
  "id":63
 },
 {
  "rating":"SD",
  "name":"D\u1ecb Bi\u1ec7t",
  "title":"Divergent",
  "poster":"https://lh6.googleusercontent.com/-BxRZs4JC6UY/Uzr7PZ-SfqI/AAAAAAAAAKI/Kex2_3csnG8/avatar2014-04-01%25252017%25253A45%25253A32.565470.jpg",
  "score":7.8,
  "showtimes":"120 Ph\u00fat",
  "id":62
 },
 {
  "rating":"mHD",
  "name":"L\u1eeda Ph\u1eadt",
  "title":"Once Upon A Time In Vietnam",
  "poster":"https://lh4.googleusercontent.com/-cSL_KPlQhQE/Uzr6epHT0rI/AAAAAAAAAKA/Tmjc0a3WsOM/avatar2014-04-01%25252017%25253A42%25253A17.822018.jpg",
  "score":0.0,
  "showtimes":"100 Ph\u00fat",
  "id":61
 },
 {
  "rating":"mHD",
  "name":"\u0110\u1ea1i N\u00e1o Thi\u00ean Cung ",
  "title":"The Monkey King",
  "poster":"https://lh6.googleusercontent.com/-8UwbcPfhzfk/Uzr5sSYSo2I/AAAAAAAAAJ4/kcZY333D5E4/avatar2014-04-01%25252017%25253A38%25253A56.263668.jpg",
  "score":0.0,
  "showtimes":"110 ph\u00fat",
  "id":60
 },
 {
  "rating":"BR",
  "name":"Thi\u00ean Ti\u00ean K\u1ef3 Hi\u1ec7p",
  "title":"Just Another Margin",
  "poster":"https://lh6.googleusercontent.com/-YeP1fIiLcys/Uzr4yaFq28I/AAAAAAAAAJo/7RaTuY0qLuI/avatar2014-04-01%25252017%25253A35%25253A04.525044.jpg",
  "score":0.0,
  "showtimes":"80 Ph\u00fat",
  "id":59
 },
 {
  "rating":"mHD",
  "name":"V\u1ebft Th\u01b0\u01a1ng Kh\u00f3 L\u00e0nh",
  "title":"A Certain Justice",
  "poster":"https://lh5.googleusercontent.com/-IYMJYhM4aO0/Uzr34-3fY0I/AAAAAAAAAJY/0hFvd5LYzvU/avatar2014-04-01%25252017%25253A31%25253A14.196150.jpg",
  "score":0.0,
  "showtimes":"90 ph\u00fat",
  "id":58
 },
 {
  "rating":"HD",
  "name":"47 L\u00e3ng Nh\u00e2n",
  "title":"47 Ronin 2013",
  "poster":"https://lh5.googleusercontent.com/-jLilVmk8hxw/Uzr3amNAnUI/AAAAAAAAAJQ/nJMB-yfcK4c/avatar2014-04-01%25252017%25253A29%25253A13.257280.jpg",
  "score":6.4,
  "showtimes":"110 ph\u00fat",
  "id":57
 },
 {
  "rating":"HD",
  "name":"Nghi ph\u1ea1m",
  "title":"The Suspect",
  "poster":"https://lh3.googleusercontent.com/-V3Kd-Q2mjT0/Uzr2n6ZJD9I/AAAAAAAAAJI/eqO5mIIcsCs/avatar2014-04-01%25252017%25253A25%25253A49.969517.jpg",
  "score":5.7,
  "showtimes":"120 Ph\u00fat",
  "id":56
 },
 {
  "rating":"HD",
  "name":"Ng\u00e0y x\u1eeda ng\u00e0y x\u01b0a (seasion 3)",
  "title":"Once upon a time",
  "poster":"https://lh3.googleusercontent.com/-uuYArGzPW24/Uzq_eKssp_I/AAAAAAAAAIo/r0m1rBZBMnM/avatar2014-04-01%25252013%25253A30%25253A31.463459.jpg",
  "score":0.0,
  "showtimes":"",
  "id":55
 },
 {
  "rating":"BR",
  "name":"C\u1ea3nh s\u00e1t ng\u01b0\u1eddi m\u00e1y",
  "title":"Robo Cop",
  "poster":"https://lh6.googleusercontent.com/-DSf6huAO6f4/UzqY5CRLaFI/AAAAAAAAAIY/ZpDP1yKW4zY/avatar2014-04-01%25252010%25253A45%25253A55.530646.jpg",
  "score":6.7,
  "showtimes":"100 Ph\u00fat",
  "id":54
 },
 {
  "rating":"BR",
  "name":"Nh\u1eefng con qu\u1ef7 c\u1ee7a Da Vinci (Season 2)",
  "title":"Da Vinci's Demons",
  "poster":"https://lh5.googleusercontent.com/-6fkNnY5I7s0/UzqIY0FToQI/AAAAAAAAAH4/1iuwDJfaTgw/avatar2014-04-01%25252009%25253A35%25253A30.731606.jpg",
  "score":8.1,
  "showtimes":"2/8 T\u1eadp",
  "id":53
 },
 {
  "rating":"HD",
  "name":"T\u1ee9 \u0110\u1ea1i Danh B\u1ed5 2",
  "title":"The Four 2 2013",
  "poster":"https://lh4.googleusercontent.com/-iS01_0PqIvk/Uzo5uhu7ouI/AAAAAAAAAG4/q4I6IokFcI4/avatar2014-04-01%25252003%25253A59%25253A53.560230.jpg",
  "score":5.8,
  "showtimes":"117 ph\u00fat",
  "id":52
 },
 {
  "rating":"BR",
  "name":"\u0110\u1ea1i chi\u1ebfn th\u1ebf gi\u1edbi",
  "title":"World War Z ",
  "poster":"https://lh3.googleusercontent.com/-cKUiTzB6lkY/Uzopor4SF7I/AAAAAAAAAGo/bswHqgPK6jE/avatar2014-04-01%25252002%25253A51%25253A13.351633.jpg",
  "score":7.1,
  "showtimes":"110 ph\u00fat",
  "id":51
 },
 {
  "rating":"HD",
  "name":"Chi\u1ebfn D\u1ecbch B\u1ea7u C\u1eed",
  "title":" The Campaign (2012)",
  "poster":"https://lh6.googleusercontent.com/-q3mc9CEKWOA/Uzoc9VqmsKI/AAAAAAAAAGY/zl-eAXLzCsw/avatar2014-04-01%25252001%25253A57%25253A08.013842.jpg",
  "score":6.1,
  "showtimes":"86 ph\u00fat",
  "id":50
 },
 {
  "rating":"BD",
  "name":"Nh\u1eefng con qu\u1ef7 c\u1ee7a Da Vinci (Season 1)",
  "title":"Da Vinci's Demons",
  "poster":"https://lh6.googleusercontent.com/-w3_PteylCFk/UzmxczjdByI/AAAAAAAAAFc/C3dqLwAuAnU/avatar2014-03-31%25252018%25253A18%25253A26.566860.jpg",
  "score":8.1,
  "showtimes":"8 / 8 t\u1eadp",
  "id":49
 },
 {
  "rating":"mHD",
  "name":"Ninja b\u00e1o th\u00f9",
  "title":"Ninja: Shadow of a Tear",
  "poster":"https://lh3.googleusercontent.com/-FUAlALPDfeE/UzmcJR5I2CI/AAAAAAAAAFM/-QeEx9Yb0XQ/avatar2014-03-31%25252016%25253A47%25253A33.063825.jpg",
  "score":6.6,
  "showtimes":"94 ph\u00fat",
  "id":48
 },
 {
  "rating":"BR",
  "name":"300: \u0110\u1ebf ch\u1ebf r\u1ed7i d\u1eady",
  "title":"300: Rise of an Empire",
  "poster":"https://lh3.googleusercontent.com/-o5cR-wCIrJ0/UzmV8KYxBTI/AAAAAAAAACA/CU0Xjt2N5G4/avatar2014-03-31%25252016%25253A21%25253A03.917316.jpg",
  "score":6.9,
  "showtimes":"100 Ph\u00fat",
  "id":47
 },
 {
  "rating":"BR",
  "name":"Percy Jackson: Qu\u00e1i v\u1eadt bi\u1ec3n",
  "title":"Percy Jackson: Sea of Monsters",
  "poster":"https://lh6.googleusercontent.com/-0HOOaTAlxhQ/UzmWCw7VY5I/AAAAAAAAACI/LSswuTfksNY/avatar2014-03-31%25252016%25253A21%25253A30.624058.jpg",
  "score":6.1,
  "showtimes":"100 Ph\u00fat",
  "id":46
 },
 {
  "rating":"HD",
  "name":"\u0110\u00e3 \u0111\u1ebfn l\u00fac",
  "title":"About Time ",
  "poster":"https://lh5.googleusercontent.com/-0VbzEL3IB8k/UzmWHW8e2kI/AAAAAAAAACQ/cec0GB2pO98/avatar2014-03-31%25252016%25253A21%25253A48.027908.jpg",
  "score":7.8,
  "showtimes":"120 Ph\u00fat",
  "id":45
 },
 {
  "rating":"HD",
  "name":"R\u1eafc r\u1ed1i tu\u1ed5i teen",
  "title":"Short Term 12",
  "poster":"https://lh4.googleusercontent.com/-ifgyn276hso/UzmWL9fr5_I/AAAAAAAAACY/iq-_Cvc28RM/avatar2014-03-31%25252016%25253A22%25253A06.931479.jpg",
  "score":8.1,
  "showtimes":"50 ph\u00fat",
  "id":44
 },
 {
  "rating":"BR",
  "name":"Tom V\u00e0 Jerry: Cu\u1ed9c Phi\u00eau L\u01b0u V\u00e0o V\u01b0\u01a1ng Qu\u1ed1c Ng\u01b0\u1eddi Kh\u1ed5ng L\u1ed3",
  "title":"Tom and Jerry's Giant Adventure",
  "poster":"https://lh4.googleusercontent.com/-oIsG5kzyLfo/UzmWPUDBFkI/AAAAAAAAACg/ulCcNvWg_pQ/avatar2014-03-31%25252016%25253A22%25253A20.859344.jpg",
  "score":5.9,
  "showtimes":"60 ph\u00fat",
  "id":43
 },
 {
  "rating":"HD",
  "name":"Li\u00ean minh c\u00f4ng l\u00fd",
  "title":"Justice League: War ",
  "poster":"https://lh6.googleusercontent.com/-9b72BzqeHcQ/UzmWXtPqT3I/AAAAAAAAACw/I5NNv-R-Vws/avatar2014-03-31%25252016%25253A22%25253A53.407842.jpg",
  "score":7.1,
  "showtimes":"80 Ph\u00fat",
  "id":42
 },
 {
  "rating":"BR",
  "name":"Hi\u1ec7p s\u0129 qu\u1ea3 c\u1ea3m",
  "title":"Justin and the Knights of Valour",
  "poster":"https://lh4.googleusercontent.com/-I7HvIN_KyUE/UzmWcPfeDJI/AAAAAAAAAC4/NTRT1qdC7kw/avatar2014-03-31%25252016%25253A23%25253A11.678518.jpg",
  "score":6.0,
  "showtimes":"90 ph\u00fat",
  "id":41
 },
 {
  "rating":"mHD",
  "name":"S\u00f3i gi\u00e0 ph\u1ed1 Wall",
  "title":"The Wolf of Wall Street",
  "poster":"https://lh6.googleusercontent.com/-h-HkNFxXz6w/UzmWgVkX0PI/AAAAAAAAADA/HDRoyDb5rp4/avatar2014-03-31%25252016%25253A23%25253A28.120085.jpg",
  "score":8.4,
  "showtimes":"180 Ph\u00fat",
  "id":40
 },
 {
  "rating":"BR",
  "name":"\u0110\u00eam m\u00e1u l\u1ea1nh",
  "title":"Cold Comes the Night",
  "poster":"http://i1.minus.com/ibg2bmbGnsVN7y.jpg",
  "score":5.7,
  "showtimes":"90 ph\u00fat",
  "id":39
 },
 {
  "rating":"HD",
  "name":"Tam qu\u1ed1c di\u1ec5n ngh\u0129a",
  "title":"Three Kingdoms",
  "poster":"https://lh5.googleusercontent.com/-LxMVvJoqxiw/UzmW1TnC7cI/AAAAAAAAADI/Tj4QVdsdl8Y/avatar2014-03-31%25252016%25253A24%25253A52.862256.jpg",
  "score":0.0,
  "showtimes":"85 T\u1eadp",
  "id":38
 },
 {
  "rating":"HD",
  "name":"\u0110i t\u00ecm c\u00f4ng l\u00fd",
  "title":"Out of the Furnace",
  "poster":"https://lh3.googleusercontent.com/-fZjfk2oQ8OI/UzmXA6G6pyI/AAAAAAAAADQ/ByYhKoU7Vpw/avatar2014-03-31%25252016%25253A25%25253A38.680337.jpg",
  "score":6.9,
  "showtimes":"110 ph\u00fat",
  "id":37
 },
 {
  "rating":"HD",
  "name":"M\u1ea5t t\u1ea5t c\u1ea3",
  "title":"All Is Lost",
  "poster":"https://lh4.googleusercontent.com/-CWDb7XybpKk/UzmXEuFQaqI/AAAAAAAAADY/cYjsj1cmv0I/avatar2014-03-31%25252016%25253A25%25253A53.482127.jpg",
  "score":6.9,
  "showtimes":"100 Ph\u00fat",
  "id":36
 },
 {
  "rating":"HD",
  "name":"B\u00e3o l\u1eeda",
  "title":"Firestorm",
  "poster":"https://lh4.googleusercontent.com/-I3-Q0fqjeBA/UzmXHQONuQI/AAAAAAAAADg/tqkEKp0XzEo/avatar2014-03-31%25252016%25253A26%25253A04.689471.jpg",
  "score":6.2,
  "showtimes":"120 Ph\u00fat",
  "id":35
 },
 {
  "rating":"mHD",
  "name":"Gi\u1ebft ng\u01b0\u1eddi d\u1ea5u y\u00eau",
  "title":"Kill Your Darlings",
  "poster":"https://lh5.googleusercontent.com/-FMdQxoFFiYE/UzwCxB1cB9I/AAAAAAAAALE/iedI0BMmaes/avatar2014-04-02%25252012%25253A29%25253A54.050137.jpg",
  "score":6.6,
  "showtimes":"100 Ph\u00fat",
  "id":34
 },
 {
  "rating":"HD",
  "name":"Thi\u00eang li\u00eang t\u00ecnh m\u1eabu t\u1eed",
  "title":"Philomena",
  "poster":"https://lh4.googleusercontent.com/-by3wOxru6pA/UzmXmCrCtFI/AAAAAAAAADw/129Tse20EDI/avatar2014-03-31%25252016%25253A28%25253A07.473287.jpg",
  "score":7.7,
  "showtimes":"100 Ph\u00fat",
  "id":33
 },
 {
  "rating":"HD",
  "name":"Bad Asses",
  "title":"Bad Asses",
  "poster":"http://i.jeded.com/i/bad-asses.21849.jpg",
  "score":0.0,
  "showtimes":"",
  "id":32
 },
 {
  "rating":"BR",
  "name":"V\u01b0\u1ee3t ng\u1ee5c",
  "title":"Escape Plan",
  "poster":"https://lh4.googleusercontent.com/-leYp0vk9Y-c/UzmXpJ8SFtI/AAAAAAAAAD4/I9QqJEJL04c/avatar2014-03-31%25252016%25253A28%25253A20.185360.jpg",
  "score":6.8,
  "showtimes":"110 ph\u00fat",
  "id":31
 },
 {
  "rating":"BR",
  "name":"V\u1eb9t \u0111u\u00f4i d\u00e0i",
  "title":"Rio",
  "poster":"https://lh6.googleusercontent.com/-_ZC-W5bBNBA/UzmXxaK3gMI/AAAAAAAAAEI/RfOaByOq-Ls/avatar2014-03-31%25252016%25253A28%25253A52.919636.jpg",
  "score":7.0,
  "showtimes":"100 Ph\u00fat",
  "id":30
 },
 {
  "rating":"Dv",
  "name":"Huy\u1ec1n tho\u1ea1i Hercules",
  "title":"The Legend Of Hercules 2014",
  "poster":"http://i.jeded.com/i/the-legend-of-hercules.21940.jpg",
  "score":4.3,
  "showtimes":"100 Ph\u00fat",
  "id":29
 },
 {
  "rating":"BR",
  "name":"Th\u1ea7n s\u1ea5m",
  "title":"Thor 1",
  "poster":"http://i.jeded.com/i/thor.154-8100.jpg",
  "score":7.0,
  "showtimes":"115 Ph\u00fat",
  "id":28
 },
 {
  "rating":"BR",
  "name":"Ng\u01b0\u1eddi Giao H\u00e0ng",
  "title":"Delivery Man",
  "poster":"http://i.jeded.com/i/delivery-man.17060.jpg",
  "score":6.8,
  "showtimes":"100 Ph\u00fat",
  "id":27
 },
 {
  "rating":"BD",
  "name":"Cu\u1ed9c s\u1ed1ng b\u00ed m\u1eadt c\u1ee7a Walter Mitty",
  "title":"The Secret Life of Walter Mitty ",
  "poster":"https://lh3.googleusercontent.com/-3MJIAh7dfnY/UzmX3TH8CfI/AAAAAAAAAEQ/0YyvnAc2exQ/avatar2014-03-31%25252016%25253A29%25253A16.359620.jpg",
  "score":7.8,
  "showtimes":"110 ph\u00fat",
  "id":26
 },
 {
  "rating":"BR",
  "name":"Ng\u01b0\u1eddi l\u00f9n: ch\u1ed1n hoang t\u00e0n c\u1ee7a Smaug",
  "title":"The Hobbit The Desolation of Smaug",
  "poster":"https://lh3.googleusercontent.com/-4cC4MJB-4QU/UzmYBNox1yI/AAAAAAAAAEo/-1cllPG1E8U/avatar2014-03-31%25252016%25253A29%25253A55.145200.jpg",
  "score":8.1,
  "showtimes":"160 ph\u00fat",
  "id":25
 },
 {
  "rating":"BD",
  "name":"S\u1ed1ng s\u00f3t",
  "title":"Lone Survivor",
  "poster":"https://lh4.googleusercontent.com/-QwCoFy9R_Sw/UzmUhycjCpI/AAAAAAAAAA4/lhcFU_wJhrU/avatar2014-03-31%25252016%25253A15%25253A02.216232.jpg",
  "score":7.8,
  "showtimes":"120 Ph\u00fat",
  "id":24
 },
 {
  "rating":"BR",
  "name":"Ng\u01b0\u1eddi nh\u1ec7n",
  "title":"The Amazing Spider-Man",
  "poster":"https://lh6.googleusercontent.com/-JDpxF4mTD6c/UzpYcvtFVDI/AAAAAAAAAHY/h4D_2KzHtC4/avatar2014-04-01%25252006%25253A10%25253A57.204489.jpg",
  "score":7.7,
  "showtimes":"130 Ph\u00fat",
  "id":23
 },
 {
  "rating":"BR",
  "name":"Qu\u00e1 nhanh qu\u00e1 nguy hi\u1ec3m 6",
  "title":"Fast & Furious 6",
  "poster":"http://i.jeded.com/i/fast-and-furious-6.154-4667.jpg",
  "score":7.2,
  "showtimes":"120 Ph\u00fat",
  "id":22
 },
 {
  "rating":"BD",
  "name":"Tho\u00e1t kh\u1ecfi g\u00f4ng xi\u1ec1ng",
  "title":"Django Unchained",
  "poster":"https://lh3.googleusercontent.com/-N7x1lTnNpfk/UzpM4ca71TI/AAAAAAAAAHI/vpxz3ob6Iu0/avatar2014-04-01%25252005%25253A21%25253A35.841698.jpg",
  "score":8.8,
  "showtimes":"150 ph\u00fat",
  "id":21
 },
 {
  "rating":"HD",
  "name":"Tr\u1eadn h\u00f9ng chi\u1ebfn x\u1ee9 s\u1edf l\u00e1 c\u00e2y",
  "title":"Epic",
  "poster":"https://lh4.googleusercontent.com/-tgEJ8C06F4U/UzmX807TMTI/AAAAAAAAAEg/04bMZVwxclM/avatar2014-03-31%25252016%25253A29%25253A38.313213.jpg",
  "score":6.7,
  "showtimes":"100 Ph\u00fat",
  "id":20
 },
 {
  "rating":"BD",
  "name":"B\u00ed ki\u1ebfp luy\u1ec7n r\u1ed3ng",
  "title":"How to Train Your Dragon",
  "poster":"https://lh3.googleusercontent.com/-48xKgIh2TzM/UzmYVEZtgvI/AAAAAAAAAE4/ZhxeMbAGK08/avatar2014-03-31%25252016%25253A31%25253A15.627967.jpg",
  "score":8.2,
  "showtimes":"100 Ph\u00fat",
  "id":19
 },
 {
  "rating":"BD",
  "name":"K\u1ebb \u0111\u00e1nh c\u1eafp gi\u1ea5c m\u01a1",
  "title":"Inception",
  "poster":"https://lh4.googleusercontent.com/-CN0AJFai2gw/Uzvw_00VZAI/AAAAAAAAAK0/zMxUaMWzqX8/avatar2014-04-02%25252011%25253A14%25253A06.645889.jpg",
  "score":8.8,
  "showtimes":"140 ph\u00fat",
  "id":18
 },
 {
  "rating":"BD",
  "name":"K\u1ebb tr\u1ed9m m\u1eb7t tr\u0103ng",
  "title":"Despicable Me",
  "poster":"https://lh3.googleusercontent.com/-aavsVtPMO0A/Uzm3yFWtgKI/AAAAAAAAAFs/oArT0cHJEc8/avatar2014-03-31%25252018%25253A45%25253A27.758709.jpg",
  "score":7.6,
  "showtimes":"90 Ph\u00fat",
  "id":17
 },
 {
  "rating":"BD",
  "name":"\u0110\u1ea5u tr\u01b0\u1eddng sinh t\u1eed - b\u1eaft l\u1eeda",
  "title":"The Hunger Games Catching Fire ",
  "poster":"http://i.jeded.com/i/the-hunger-games.154-17694.jpg",
  "score":7.9,
  "showtimes":"143 Ph\u00fat",
  "id":16
 },
 {
  "rating":"BD",
  "name":"B\u00f4 l\u00e3o x\u00ec tin",
  "title":"Last Vegas",
  "poster":"https://lh6.googleusercontent.com/-ca6oydL61GA/Uzm4kmKOiMI/AAAAAAAAAF0/Q1kOEwok4w0/avatar2014-03-31%25252018%25253A48%25253A49.838573.jpg",
  "score":6.7,
  "showtimes":"105 Ph\u00fat",
  "id":15
 },
 {
  "rating":"HD",
  "name":"K\u1ebb tr\u1ed9m s\u00e1ch",
  "title":"The Book Thief",
  "poster":"https://lh4.googleusercontent.com/-ihT4lKFLHi0/UzoRZN_1DQI/AAAAAAAAAGE/0hdzp_r3jTw/avatar2014-04-01%25252001%25253A07%25253A46.990469.jpg",
  "score":7.7,
  "showtimes":"130 Ph\u00fat",
  "id":14
 },
 {
  "rating":"HD",
  "name":"Gi\u1ea3i c\u1ee9u ng\u00e0i Banks",
  "title":"Saving Mr Banks",
  "poster":"https://lh6.googleusercontent.com/-5iYmyWwotKk/Uzp790pUIqI/AAAAAAAAAHo/pIljBVuZRRg/avatar2014-04-01%25252008%25253A42%25253A30.948730.jpg",
  "score":7.7,
  "showtimes":"120 Ph\u00fat",
  "id":13
 },
 {
  "rating":"BD",
  "name":"T\u00f4i l\u00e0 Frankenstein",
  "title":"I, Frankenstein",
  "poster":"https://lh3.googleusercontent.com/-oAfqbU801Pg/UzqNwb73ehI/AAAAAAAAAII/5GGssl6pbu0/avatar2014-04-01%25252009%25253A58%25253A24.543305.jpg",
  "score":5.7,
  "showtimes":"90 ph\u00fat",
  "id":12
 },
 {
  "rating":"BD",
  "name":"Tr\u1ecdng l\u1ef1c",
  "title":"Gravity",
  "poster":"http://i.jeded.com/i/gravity.15261.jpg",
  "score":8.1,
  "showtimes":"90 ph\u00fat",
  "id":11
 },
 {
  "rating":"BR",
  "name":"Tr\u00f2 ch\u01a1i c\u1ee7a Ender",
  "title":"Ender's Game",
  "poster":"https://lh5.googleusercontent.com/-oejszG4IEWI/UzrUyY31hCI/AAAAAAAAAI4/1NknwLx8CeU/avatar2014-04-01%25252015%25253A01%25253A28.243296.jpg",
  "score":6.8,
  "showtimes":"120 Ph\u00fat",
  "id":10
 },
 {
  "rating":"HD",
  "name":"Thuy\u1ec1n tr\u01b0\u1edfng Phillips ",
  "title":"Captain Phillips ",
  "poster":"https://lh5.googleusercontent.com/-rCqVgFyfQ7U/UzmYd_okDJI/AAAAAAAAAFA/gyi3yUV75-Y/avatar2014-03-31%25252016%25253A31%25253A51.133602.jpg",
  "score":8.0,
  "showtimes":"120 Ph\u00fat",
  "id":9
 },
 {
  "rating":"BR",
  "name":"B\u00f4 l\u00e3o x\u00ec tin",
  "title":"Last Vegas",
  "poster":"https://lh6.googleusercontent.com/-E33562iCbtM/UzmV0d1v7TI/AAAAAAAAAB4/cFSm50fCbek/avatar2014-03-31%25252016%25253A20%25253A33.069985.jpg",
  "score":6.7,
  "showtimes":"100 Ph\u00fat",
  "id":8
 },
 {
  "rating":"BD",
  "name":"\u0110\u1ea5u tr\u01b0\u1eddng sinh t\u1eed - b\u1eaft l\u1eeda",
  "title":"The Hunger Games Catching Fire",
  "poster":"https://lh6.googleusercontent.com/-ngdpToCNHQQ/UzmVuWprLOI/AAAAAAAAABw/gSwJgwtbbn8/avatar2014-03-31%25252016%25253A20%25253A08.594077.jpg",
  "score":7.9,
  "showtimes":"180 Ph\u00fat",
  "id":7
 },
 {
  "rating":"BR",
  "name":"Thor 2 - Th\u1ebf gi\u1edbi b\u00f3ng t\u1ed1i",
  "title":"Thor 2: The Dark World",
  "poster":"https://lh6.googleusercontent.com/-1lfQYWSC3Po/UzmVqQkr9kI/AAAAAAAAABo/600ozzwHsSE/avatar2014-03-31%25252016%25253A19%25253A52.367403.jpg",
  "score":7.3,
  "showtimes":"120 Ph\u00fat",
  "id":6
 },
 {
  "rating":"BD",
  "name":"N\u00e0ng ti\u00ean c\u01b0\u1edbp bi\u1ec3n",
  "title":"The Pirate Fairy",
  "poster":"https://lh5.googleusercontent.com/-4t9lUNwWBWs/UzmVjgmBNBI/AAAAAAAAABg/li2kzChurwo/avatar2014-03-31%25252016%25253A19%25253A25.755164.jpg",
  "score":6.3,
  "showtimes":"80 Ph\u00fat",
  "id":5
 },
 {
  "rating":"BR",
  "name":"12 n\u0103m n\u00f4 l\u1ec7",
  "title":"12 Years a Slave",
  "poster":"https://lh3.googleusercontent.com/-MXrk7Gy823I/UzmVenyrvJI/AAAAAAAAABY/Wxbn5IfK7Q8/avatar2014-03-31%25252016%25253A19%25253A05.495324.jpg",
  "score":8.3,
  "showtimes":"120 Ph\u00fat",
  "id":4
 },
 {
  "rating":"BD",
  "name":"C\u00f4ng ch\u00faa b\u0103ng gi\u00e1",
  "title":"Frozen",
  "poster":"https://lh4.googleusercontent.com/-5BviNJJV3ws/UzmVVqZY1bI/AAAAAAAAABQ/xoGRrKUtNUw/avatar2014-03-31%25252016%25253A18%25253A29.210573.jpg",
  "score":7.9,
  "showtimes":"140 ph\u00fat",
  "id":3
 },
 {
  "rating":"BR",
  "name":"S\u0103n ti\u1ec1n ki\u1ec3u m\u1ef9",
  "title":"American Hustle",
  "poster":"https://lh4.googleusercontent.com/-gOTHl7XQXBY/UzmVJvik-UI/AAAAAAAAABI/PSlna6O-I78/avatar2014-03-31%25252016%25253A17%25253A41.405090.jpg",
  "score":7.5,
  "showtimes":"140 ph\u00fat",
  "id":2
 },
 {
  "rating":"HD",
  "name":"H\u1eadu ph\u01b0\u01a1ng",
  "title":"Homefront",
  "poster":"https://lh6.googleusercontent.com/-AUkUBKQbjsw/UzmU9uTGPJI/AAAAAAAAABA/sWF0cF_Z9YY/avatar2014-03-31%25252016%25253A16%25253A53.460829.jpg",
  "score":6.6,
  "showtimes":"100 Ph\u00fat",
  "id":1
 }
]